classes = 1
train = ./data/train.txt
valid = ./data/test.txt
names = /home/rubin/arams_project/src/traffic_light_detection/weights/arams_class.names
names = /home/rubin/arams_project/src/traffic_light_detection/weights/yolov4-tiny.cfg
backup = ./training
